\select@language {british}
\contentsline {section}{\numberline {1}Úvod}{3}{section.1}
\contentsline {section}{\numberline {2}Segmentácia obrazu}{3}{section.2}
\contentsline {section}{\numberline {3}Generalized subjective surface equation}{4}{section.3}
\contentsline {subsection}{\numberline {3.1}Vlastnosti generalized subjective surface equation}{4}{subsection.3.1}
\contentsline {subsubsection}{\numberline {3.1.1}Flexibilita}{4}{subsubsection.3.1.1}
\contentsline {subsubsection}{\numberline {3.1.2}Všeobecnosť}{5}{subsubsection.3.1.2}
\contentsline {section}{\numberline {4}Odvodenie numerickej schémi}{5}{section.4}
\contentsline {subsubsection}{\numberline {4.0.3}Diamond cell approximation}{8}{subsubsection.4.0.3}
\contentsline {section}{\numberline {5}Riešenie sústavy}{9}{section.5}
