\relax 
\providecommand\hyper@newdestlabel[2]{}
\providecommand\HyperFirstAtBeginDocument{\AtBeginDocument}
\HyperFirstAtBeginDocument{\ifx\hyper@anchor\@undefined
\global\let\oldcontentsline\contentsline
\gdef\contentsline#1#2#3#4{\oldcontentsline{#1}{#2}{#3}}
\global\let\oldnewlabel\newlabel
\gdef\newlabel#1#2{\newlabelxx{#1}#2}
\gdef\newlabelxx#1#2#3#4#5#6{\oldnewlabel{#1}{{#2}{#3}}}
\AtEndDocument{\ifx\hyper@anchor\@undefined
\let\contentsline\oldcontentsline
\let\newlabel\oldnewlabel
\fi}
\fi}
\global\let\hyper@last\relax 
\gdef\HyperFirstAtBeginDocument#1{#1}
\providecommand*\HyPL@Entry[1]{}
\HyPL@Entry{0<</S/D>>}
\select@language{british}
\@writefile{toc}{\select@language{british}}
\@writefile{lof}{\select@language{british}}
\@writefile{lot}{\select@language{british}}
\HyPL@Entry{1<</S/D>>}
\HyPL@Entry{2<</S/D>>}
\@writefile{toc}{\contentsline {section}{\numberline {1}Úvod}{3}{section.1}}
\@writefile{toc}{\contentsline {section}{\numberline {2}Segmentácia obrazu}{3}{section.2}}
\@writefile{lof}{\contentsline {figure}{\numberline {2.1}{\ignorespaces Príklad použitia segmentácie obrazu na počítanie buniek v biológií http://luispedro.org/files/images/gnf-segmented-41.png}}{3}{figure.2.1}}
\@writefile{toc}{\contentsline {section}{\numberline {3}Generalized subjective surface equation}{4}{section.3}}
\@writefile{toc}{\contentsline {subsection}{\numberline {3.1}Vlastnosti generalized subjective surface equation}{4}{subsection.3.1}}
\@writefile{toc}{\contentsline {subsubsection}{\numberline {3.1.1}Flexibilita}{4}{subsubsection.3.1.1}}
\@writefile{toc}{\contentsline {subsubsection}{\numberline {3.1.2}Všeobecnosť}{5}{subsubsection.3.1.2}}
\@writefile{toc}{\contentsline {section}{\numberline {4}Odvodenie numerickej schémi}{5}{section.4}}
\@writefile{toc}{\contentsline {subsubsection}{\numberline {4.0.3}Diamond cell approximation}{8}{subsubsection.4.0.3}}
\@writefile{toc}{\contentsline {section}{\numberline {5}Riešenie sústavy}{9}{section.5}}
\bibdata{bakalarka.bib}
\citation{*}
\bibstyle{plain}
